NOAA Storm Data Exploration For The Most Harmful Events To Population Health And The Events That Have The Greatest Economic Consequences To The US
…
## [1] 985

# Is there missing data?
sum(is.na(storm_data$EVTYPE)) > 0

## [1] FALSE

# Top 10 most frequent events of all time. 
storm_data %>% 
  group_by(EVTYPE) %>% 
  summarise(total_amount = n()) %>% 
  arrange(desc(total_amount)) 

## # A tibble: 985 x 2
##    EVTYPE             total_amount
##    <fct>                     <int>
##  1 HAIL                     288661
##  2 TSTM WIND                219940
##  3 THUNDERSTORM WIND         82563
##  4 TORNADO                   60652
##  5 FLASH FLOOD               54277
##  6 FLOOD                     25326
##  7 THUNDERSTORM WINDS        20843
##  8 HIGH WIND                 20212
##  9 LIGHTNING                 15754
## 10 HEAVY SNOW                15708
## #  with 975 more rows
…
